Reproduciable spatial data analysis:
…
---
# Transportation zones

.pull-left[

```r
zones_origin = bristol_od %>% 
  group_by(o) %>% 
  summarize_if(is.numeric, sum) %>% 
  dplyr::select(geo_code = o, all_origin = all)
zones_origin
```

```
## # A tibble: 102 x 2
##    geo_code  all_origin
##    <chr>          <int>
##  1 E02002985        868
##  2 E02002987        898
##  3 E02003005        786
##  4 E02003012       3312
##  5 E02003013       3715
##  6 E02003014       2220
##  7 E02003015       1633
##  8 E02003016       2411
##  9 E02003017       1590
## 10 E02003018       1690
## # ... with 92 more rows
```
]

.pull-right[

```r
zones_dest = bristol_od %>% 
  group_by(d) %>% 
  summarize_if(is.numeric, sum) %>% 
  dplyr::select(geo_code = d, all_dest = all)
zones_dest
```

```
## # A tibble: 102 x 2
##    geo_code  all_dest
##    <chr>        <int>
##  1 E02002985      744
##  2 E02002987      561
##  3 E02003005      427
##  4 E02003012      701
##  5 E02003013      940
##  6 E02003014     3469
##  7 E02003015     4980
##  8 E02003016      297
##  9 E02003017     1459
## 10 E02003018      128
## # ... with 92 more rows
```
…
